%YAML 1.1
%TAG !u! tag:unity3d.com,2011:
--- !u!1045 &1
EditorBuildSettings:
  m_ObjectHideFlags: 0
  serializedVersion: 2
  m_Scenes:
  - enabled: 1
    path: Assets/Scenes/MainMenu.unity
    guid: e8886dd476ffd474fa5c73b19dfd48e3
  - enabled: 1
    path: Assets/Scenes/OpenWorld.unity
    guid: 9fc0d4010bbf28b4594072e72b8655ab
  - enabled: 1
    path: Assets/Scenes/Level1.unity
    guid: ab1ce1362a4956147b2c67135ea0cac8
  - enabled: 1
    path: Assets/Scenes/Level2.unity
    guid: a44e1760ab5362e4fa359d49d6cb5f85
  - enabled: 1
    path: Assets/Scenes/WinMenu.unity
    guid: 06a7f28b43604204fb29e7f0ad1a0c55
  - enabled: 1
    path: Assets/Scenes/LoseMenu.unity
    guid: 29debffcb8c6fb14fa81256079969519
  m_configObjects: {}
